{
  "app_name": "Moa",
  "app_title": "Sundered Eldritch Edition",
  "app_version": "1",
  "asset_info": {
    "app_name": "Moa",
    "asset_id": "Moa",
    "build_version": "1",
    "catalog_item_id": "667e9987946046af92f4b8b3a54ed417",
    "label_name": "Live-Windows",
    "metadata": {},
    "namespace": "ca8077d80493497188e0ca5bca3ebe60"
  },
  "base_urls": [],
  "metadata": {
    "categories": [
      {
        "path": "public"
      },
      {
        "path": "games"
      },
      {
        "path": "applications"
      }
    ],
    "creationDate": "2019-09-12T18:10:13.655Z",
    "customAttributes": {
      "CanRunOffline": {
        "type": "STRING",
        "value": "true"
      },
      "CanSkipKoreanIdVerification": {
        "type": "STRING",
        "value": "true"
      },
      "FolderName": {
        "type": "STRING",
        "value": "Sundered"
      },
      "MonitorPresence": {
        "type": "STRING",
        "value": "true"
      },
      "PresenceId": {
        "type": "STRING",
        "value": "ca8077d80493497188e0ca5bca3ebe60"
      },
      "RequirementsJson": {
        "type": "STRING",
        "value": "[]"
      },
      "UseAccessControl": {
        "type": "STRING",
        "value": "false"
      }
    },
    "description": "Sundered Eldritch Edition",
    "developer": "Thunder Lotus Games",
    "developerId": "o-k5nhue2lw5nkaqutyhkwrdl5qjkcd5",
    "endOfSupport": false,
    "entitlementName": "667e9987946046af92f4b8b3a54ed417",
    "entitlementType": "EXECUTABLE",
    "eulaIds": [
      "egstore"
    ],
    "id": "667e9987946046af92f4b8b3a54ed417",
    "itemType": "DURABLE",
    "keyImages": [
      {
        "height": 1440,
        "md5": "a0e453024c831c7d7f9812899582101e",
        "size": 160966,
        "type": "DieselGameBox",
        "uploadedDate": "2020-01-04T02:43:42.934Z",
        "url": "https://cdn1.epicgames.com/ca8077d80493497188e0ca5bca3ebe60/item/Diesel_productv2_sundered-eldritch-edition_home_EGS_ThunderLotus_SunderedEldritchEdition_S1-2560x1440-d54465fa29a48ca1e83009788f47152e8a8e03c5-2560x1440-a0e453024c831c7d7f9812899582101e.jpg",
        "width": 2560
      },
      {
        "height": 1148,
        "md5": "5eddf34fa16245497122e3c9a7954cbe",
        "size": 105218,
        "type": "DieselGameBoxTall",
        "uploadedDate": "2020-01-04T02:43:57.296Z",
        "url": "https://cdn1.epicgames.com/ca8077d80493497188e0ca5bca3ebe60/item/Diesel_productv2_sundered-eldritch-edition_home_EGS_ThunderLotus_SunderedEldritchEdition_S2-860x1148-48ef3608363f199d2ed175451d08a29cf71414c3-860x1148-5eddf34fa16245497122e3c9a7954cbe.jpg",
        "width": 860
      }
    ],
    "lastModifiedDate": "2020-01-06T18:28:36.313Z",
    "namespace": "ca8077d80493497188e0ca5bca3ebe60",
    "releaseInfo": [
      {
        "appId": "Moa",
        "dateAdded": "2019-10-07T00:00:00.000Z",
        "id": "6cca17d46bf74a78965eb1ce31b9396e",
        "platform": [
          "Windows",
          "Mac"
        ]
      }
    ],
    "selfRefundable": true,
    "status": "ACTIVE",
    "title": "Sundered Eldritch Edition",
    "unsearchable": false
  }
}