{
  "app_name": "Ovenbird",
  "app_title": "Surviving Mars",
  "app_version": "Tito.1001586[Windows]",
  "asset_info": {
    "app_name": "Ovenbird",
    "asset_id": "Ovenbird",
    "build_version": "Tito.1001586[Windows]",
    "catalog_item_id": "20729b9176c241f0b617c5723e70ec2d",
    "label_name": "Live-Windows",
    "metadata": {},
    "namespace": "d759128018124dcabb1fbee9bb28e178"
  },
  "base_urls": [],
  "metadata": {
    "ageGatings": {},
    "categories": [
      {
        "path": "public"
      },
      {
        "path": "games"
      },
      {
        "path": "applications"
      }
    ],
    "creationDate": "2019-09-03T14:07:35.737Z",
    "customAttributes": {
      "CanRunOffline": {
        "type": "STRING",
        "value": "true"
      },
      "CanSkipKoreanIdVerification": {
        "type": "STRING",
        "value": "true"
      },
      "CloudSaveFolder": {
        "type": "STRING",
        "value": "{appdata}/../roaming/Surviving Mars/Save/"
      },
      "CloudSaveFolder_MAC": {
        "type": "STRING",
        "value": "{UserLibrary}/Application Support/Surviving Mars/Save/"
      },
      "FolderName": {
        "type": "STRING",
        "value": "SurvivingMars"
      },
      "MaxSizeMB": {
        "type": "STRING",
        "value": "50000"
      },
      "MonitorPresence": {
        "type": "STRING",
        "value": "true"
      },
      "PresenceId": {
        "type": "STRING",
        "value": "d759128018124dcabb1fbee9bb28e178"
      },
      "RequirementsJson": {
        "type": "STRING",
        "value": "{}"
      },
      "UseAccessControl": {
        "type": "STRING",
        "value": "false"
      }
    },
    "description": "Surviving Mars",
    "developer": "Paradox Interactive",
    "developerId": "o-tjvfg6rejs6h86qa7k9aa64rrgbxxb",
    "dlcItemList": [
      {
        "ageGatings": {},
        "categories": [
          {
            "path": "audience"
          },
          {
            "path": "public"
          }
        ],
        "creationDate": "2019-09-12T19:33:30.427Z",
        "customAttributes": {
          "SupportedPlatforms": {
            "type": "STRING",
            "value": "Windows,Mac"
          }
        },
        "description": "Surviving Mars Deluxe Upgrade Pack Audience",
        "developer": "Paradox Interactive",
        "developerId": "o-tjvfg6rejs6h86qa7k9aa64rrgbxxb",
        "endOfSupport": false,
        "entitlementName": "ee4273f372ff46499af83bd5cdb8ccb8",
        "entitlementType": "AUDIENCE",
        "esrbGameRatingValue": "EVERYONE_10_PLUS",
        "eulaIds": [
          "egstore"
        ],
        "id": "ee4273f372ff46499af83bd5cdb8ccb8",
        "itemType": "DURABLE",
        "keyImages": [
          {
            "height": 485,
            "md5": "622107fc6de41234aa85e91e25e2795b",
            "size": 123217,
            "type": "ESRB",
            "uploadedDate": "2020-01-07T14:41:11.422Z",
            "url": "https://cdn1.epicgames.com/d759128018124dcabb1fbee9bb28e178/item/ESRB_SurvivingMars-842x485-622107fc6de41234aa85e91e25e2795b.jpg",
            "width": 842
          }
        ],
        "lastModifiedDate": "2021-03-15T10:54:22.838Z",
        "mainGameItem": {
          "id": "20729b9176c241f0b617c5723e70ec2d",
          "namespace": "d759128018124dcabb1fbee9bb28e178",
          "unsearchable": false
        },
        "namespace": "d759128018124dcabb1fbee9bb28e178",
        "status": "ACTIVE",
        "title": "Surviving Mars Deluxe Upgrade Pack Audience",
        "unsearchable": false
      },
      {
        "categories": [
          {
            "path": "audience"
          },
          {
            "path": "public"
          }
        ],
        "creationDate": "2019-09-12T20:01:44.775Z",
        "customAttributes": {
          "SupportedPlatforms": {
            "type": "STRING",
            "value": "Windows,Mac"
          }
        },
        "description": "Space Race Audience",
        "developer": "Paradox Interactive",
        "developerId": "o-tjvfg6rejs6h86qa7k9aa64rrgbxxb",
        "endOfSupport": false,
        "entitlementName": "e87d36bacb76464ea6482d5959bd44be",
        "entitlementType": "AUDIENCE",
        "esrbGameRatingValue": "EVERYONE_10_PLUS",
        "eulaIds": [
          "egstore"
        ],
        "id": "e87d36bacb76464ea6482d5959bd44be",
        "itemType": "DURABLE",
        "keyImages": [
          {
            "height": 485,
            "md5": "622107fc6de41234aa85e91e25e2795b",
            "size": 123217,
            "type": "ESRB",
            "uploadedDate": "2020-01-07T14:42:22.130Z",
            "url": "https://cdn1.epicgames.com/d759128018124dcabb1fbee9bb28e178/item/ESRB_SurvivingMars-842x485-622107fc6de41234aa85e91e25e2795b.jpg",
            "width": 842
          }
        ],
        "lastModifiedDate": "2021-03-15T10:54:22.838Z",
        "mainGameItem": {
          "id": "20729b9176c241f0b617c5723e70ec2d",
          "namespace": "d759128018124dcabb1fbee9bb28e178",
          "unsearchable": false
        },
        "namespace": "d759128018124dcabb1fbee9bb28e178",
        "status": "ACTIVE",
        "title": "Space Race Audience",
        "unsearchable": false
      },
      {
        "categories": [
          {
            "path": "audience"
          },
          {
            "path": "public"
          }
        ],
        "creationDate": "2019-09-12T20:04:40.318Z",
        "customAttributes": {
          "SupportedPlatforms": {
            "type": "STRING",
            "value": "Windows,Mac"
          }
        },
        "description": "Mysteries Resupply Pack Audience",
        "developer": "Paradox Interactive",
        "developerId": "o-tjvfg6rejs6h86qa7k9aa64rrgbxxb",
        "endOfSupport": false,
        "entitlementName": "98ea4ab4b048416591e817a650954cf3",
        "entitlementType": "AUDIENCE",
        "esrbGameRatingValue": "EVERYONE_10_PLUS",
        "eulaIds": [
          "egstore"
        ],
        "id": "98ea4ab4b048416591e817a650954cf3",
        "itemType": "DURABLE",
        "keyImages": [
          {
            "height": 485,
            "md5": "622107fc6de41234aa85e91e25e2795b",
            "size": 123217,
            "type": "ESRB",
            "uploadedDate": "2020-01-07T14:46:27.208Z",
            "url": "https://cdn1.epicgames.com/d759128018124dcabb1fbee9bb28e178/item/ESRB_SurvivingMars-842x485-622107fc6de41234aa85e91e25e2795b.jpg",
            "width": 842
          }
        ],
        "lastModifiedDate": "2021-03-15T10:54:22.838Z",
        "mainGameItem": {
          "id": "20729b9176c241f0b617c5723e70ec2d",
          "namespace": "d759128018124dcabb1fbee9bb28e178",
          "unsearchable": false
        },
        "namespace": "d759128018124dcabb1fbee9bb28e178",
        "status": "ACTIVE",
        "title": "Mysteries Resupply Pack Audience",
        "unsearchable": false
      },
      {
        "categories": [
          {
            "path": "audience"
          },
          {
            "path": "public"
          }
        ],
        "creationDate": "2019-09-12T20:06:11.718Z",
        "customAttributes": {
          "SupportedPlatforms": {
            "type": "STRING",
            "value": "Windows,Mac"
          }
        },
        "description": "Green Planet Audience",
        "developer": "Paradox Interactive",
        "developerId": "o-tjvfg6rejs6h86qa7k9aa64rrgbxxb",
        "endOfSupport": false,
        "entitlementName": "9eb26f7a9e5c43f5860fb45e6273bf26",
        "entitlementType": "AUDIENCE",
        "esrbGameRatingValue": "EVERYONE_10_PLUS",
        "eulaIds": [
          "egstore"
        ],
        "id": "9eb26f7a9e5c43f5860fb45e6273bf26",
        "itemType": "DURABLE",
        "keyImages": [
          {
            "height": 485,
            "md5": "622107fc6de41234aa85e91e25e2795b",
            "size": 123217,
            "type": "ESRB",
            "uploadedDate": "2020-01-07T14:41:30.710Z",
            "url": "https://cdn1.epicgames.com/d759128018124dcabb1fbee9bb28e178/item/ESRB_SurvivingMars-842x485-622107fc6de41234aa85e91e25e2795b.jpg",
            "width": 842
          }
        ],
        "lastModifiedDate": "2021-03-15T10:54:22.838Z",
        "mainGameItem": {
          "id": "20729b9176c241f0b617c5723e70ec2d",
          "namespace": "d759128018124dcabb1fbee9bb28e178",
          "unsearchable": false
        },
        "namespace": "d759128018124dcabb1fbee9bb28e178",
        "status": "ACTIVE",
        "title": "Green Planet Audience",
        "unsearchable": false
      },
      {
        "categories": [
          {
            "path": "audience"
          },
          {
            "path": "public"
          }
        ],
        "creationDate": "2019-09-12T20:07:32.030Z",
        "customAttributes": {
          "SupportedPlatforms": {
            "type": "STRING",
            "value": "Windows,Mac"
          }
        },
        "description": "Marsvision Song Contest Audience",
        "developer": "Paradox Interactive",
        "developerId": "o-tjvfg6rejs6h86qa7k9aa64rrgbxxb",
        "endOfSupport": false,
        "entitlementName": "427404a3dfca47018ebf50851e528ef8",
        "entitlementType": "AUDIENCE",
        "esrbGameRatingValue": "EVERYONE_10_PLUS",
        "eulaIds": [
          "egstore"
        ],
        "id": "427404a3dfca47018ebf50851e528ef8",
        "itemType": "DURABLE",
        "keyImages": [
          {
            "height": 485,
            "md5": "622107fc6de41234aa85e91e25e2795b",
            "size": 123217,
            "type": "ESRB",
            "uploadedDate": "2020-01-07T14:46:01.827Z",
            "url": "https://cdn1.epicgames.com/d759128018124dcabb1fbee9bb28e178/item/ESRB_SurvivingMars-842x485-622107fc6de41234aa85e91e25e2795b.jpg",
            "width": 842
          }
        ],
        "lastModifiedDate": "2021-03-15T10:54:22.838Z",
        "mainGameItem": {
          "id": "20729b9176c241f0b617c5723e70ec2d",
          "namespace": "d759128018124dcabb1fbee9bb28e178",
          "unsearchable": false
        },
        "namespace": "d759128018124dcabb1fbee9bb28e178",
        "status": "ACTIVE",
        "title": "Marsvision Song Contest Audience",
        "unsearchable": false
      },
      {
        "categories": [
          {
            "path": "audience"
          },
          {
            "path": "public"
          }
        ],
        "creationDate": "2019-09-12T20:08:27.343Z",
        "customAttributes": {
          "SupportedPlatforms": {
            "type": "STRING",
            "value": "Windows,Mac"
          }
        },
        "description": "Colony Design Set Audience",
        "developer": "Paradox Interactive",
        "developerId": "o-tjvfg6rejs6h86qa7k9aa64rrgbxxb",
        "endOfSupport": false,
        "entitlementName": "61149564fede41d1bbd96f69dbf119d7",
        "entitlementType": "AUDIENCE",
        "esrbGameRatingValue": "EVERYONE_10_PLUS",
        "eulaIds": [
          "egstore"
        ],
        "id": "61149564fede41d1bbd96f69dbf119d7",
        "itemType": "DURABLE",
        "keyImages": [
          {
            "height": 485,
            "md5": "622107fc6de41234aa85e91e25e2795b",
            "size": 123217,
            "type": "ESRB",
            "uploadedDate": "2020-01-07T14:43:23.794Z",
            "url": "https://cdn1.epicgames.com/d759128018124dcabb1fbee9bb28e178/item/ESRB_SurvivingMars-842x485-622107fc6de41234aa85e91e25e2795b.jpg",
            "width": 842
          }
        ],
        "lastModifiedDate": "2021-03-15T10:54:22.838Z",
        "mainGameItem": {
          "id": "20729b9176c241f0b617c5723e70ec2d",
          "namespace": "d759128018124dcabb1fbee9bb28e178",
          "unsearchable": false
        },
        "namespace": "d759128018124dcabb1fbee9bb28e178",
        "status": "ACTIVE",
        "title": "Colony Design Set Audience",
        "unsearchable": false
      },
      {
        "categories": [
          {
            "path": "audience"
          },
          {
            "path": "public"
          }
        ],
        "creationDate": "2019-09-12T20:09:27.321Z",
        "customAttributes": {
          "SupportedPlatforms": {
            "type": "STRING",
            "value": "Windows,Mac"
          }
        },
        "description": "Project Laika Audience",
        "developer": "Paradox Interactive",
        "developerId": "o-tjvfg6rejs6h86qa7k9aa64rrgbxxb",
        "endOfSupport": false,
        "entitlementName": "3c889bd7c1984757b93731084ca3561b",
        "entitlementType": "AUDIENCE",
        "esrbGameRatingValue": "EVERYONE_10_PLUS",
        "eulaIds": [
          "egstore"
        ],
        "id": "3c889bd7c1984757b93731084ca3561b",
        "itemType": "DURABLE",
        "keyImages": [
          {
            "height": 485,
            "md5": "622107fc6de41234aa85e91e25e2795b",
            "size": 123217,
            "type": "ESRB",
            "uploadedDate": "2020-01-07T14:44:51.667Z",
            "url": "https://cdn1.epicgames.com/d759128018124dcabb1fbee9bb28e178/item/ESRB_SurvivingMars-842x485-622107fc6de41234aa85e91e25e2795b.jpg",
            "width": 842
          }
        ],
        "lastModifiedDate": "2021-03-15T10:54:22.838Z",
        "mainGameItem": {
          "id": "20729b9176c241f0b617c5723e70ec2d",
          "namespace": "d759128018124dcabb1fbee9bb28e178",
          "unsearchable": false
        },
        "namespace": "d759128018124dcabb1fbee9bb28e178",
        "status": "ACTIVE",
        "title": "Project Laika Audience",
        "unsearchable": false
      },
      {
        "categories": [
          {
            "path": "audience"
          },
          {
            "path": "public"
          }
        ],
        "creationDate": "2019-09-12T20:10:22.710Z",
        "customAttributes": {
          "SupportedPlatforms": {
            "type": "STRING",
            "value": "Windows,Mac"
          }
        },
        "description": "Stellaris Dome Set Audience",
        "developer": "Paradox Interactive",
        "developerId": "o-tjvfg6rejs6h86qa7k9aa64rrgbxxb",
        "endOfSupport": false,
        "entitlementName": "d54cbf15fb82442e8f7a99852b188854",
        "entitlementType": "AUDIENCE",
        "esrbGameRatingValue": "EVERYONE_10_PLUS",
        "eulaIds": [
          "egstore"
        ],
        "id": "d54cbf15fb82442e8f7a99852b188854",
        "itemType": "DURABLE",
        "keyImages": [
          {
            "height": 485,
            "md5": "622107fc6de41234aa85e91e25e2795b",
            "size": 123217,
            "type": "ESRB",
            "uploadedDate": "2020-01-07T14:47:41.515Z",
            "url": "https://cdn1.epicgames.com/d759128018124dcabb1fbee9bb28e178/item/ESRB_SurvivingMars-842x485-622107fc6de41234aa85e91e25e2795b.jpg",
            "width": 842
          }
        ],
        "lastModifiedDate": "2021-03-15T10:54:22.838Z",
        "mainGameItem": {
          "id": "20729b9176c241f0b617c5723e70ec2d",
          "namespace": "d759128018124dcabb1fbee9bb28e178",
          "unsearchable": false
        },
        "namespace": "d759128018124dcabb1fbee9bb28e178",
        "status": "ACTIVE",
        "title": "Stellaris Dome Set Audience",
        "unsearchable": false
      },
      {
        "ageGatings": {},
        "categories": [
          {
            "path": "audience"
          },
          {
            "path": "public"
          }
        ],
        "creationDate": "2021-01-11T19:22:40.184Z",
        "customAttributes": {
          "SupportedPlatforms": {
            "type": "STRING",
            "value": "Windows,Mac"
          }
        },
        "description": "Surviving Mars In-Dome Buildings Pack Audience",
        "developer": "Paradox Interactive",
        "developerId": "o-tjvfg6rejs6h86qa7k9aa64rrgbxxb",
        "endOfSupport": false,
        "entitlementName": "cff1bed7c254491b9b41f18b195f334b",
        "entitlementType": "AUDIENCE",
        "esrbGameRatingValue": "EVERYONE_10_PLUS",
        "eulaIds": [
          "egstore"
        ],
        "id": "cff1bed7c254491b9b41f18b195f334b",
        "itemType": "DURABLE",
        "keyImages": [
          {
            "height": 485,
            "md5": "622107fc6de41234aa85e91e25e2795b",
            "size": 123217,
            "type": "ESRB",
            "uploadedDate": "2020-01-07T14:42:22.130Z",
            "url": "https://cdn1.epicgames.com/d759128018124dcabb1fbee9bb28e178/item/ESRB_SurvivingMars-842x485-622107fc6de41234aa85e91e25e2795b.jpg",
            "width": 842
          }
        ],
        "lastModifiedDate": "2021-03-15T10:54:42.326Z",
        "mainGameItem": {
          "id": "20729b9176c241f0b617c5723e70ec2d",
          "namespace": "d759128018124dcabb1fbee9bb28e178",
          "unsearchable": false
        },
        "namespace": "d759128018124dcabb1fbee9bb28e178",
        "status": "ACTIVE",
        "title": "Surviving Mars In-Dome Buildings Pack Audience",
        "unsearchable": true
      }
    ],
    "endOfSupport": false,
    "entitlementName": "20729b9176c241f0b617c5723e70ec2d",
    "entitlementType": "EXECUTABLE",
    "eulaIds": [
      "egstore"
    ],
    "id": "20729b9176c241f0b617c5723e70ec2d",
    "itemType": "DURABLE",
    "keyImages": [
      {
        "height": 1440,
        "md5": "ef059cb5bccdef0947c508db16e4a14a",
        "size": 455338,
        "type": "DieselGameBox",
        "uploadedDate": "2020-05-13T19:25:25.159Z",
        "url": "https://cdn1.epicgames.com/d759128018124dcabb1fbee9bb28e178/item/EGS_PDX_SurvivingMars_S1_Store Primary Promo (Landscape)-2560x1440-ef059cb5bccdef0947c508db16e4a14a-2560x1440-ef059cb5bccdef0947c508db16e4a14a.jpg",
        "width": 2560
      },
      {
        "height": 440,
        "md5": "d3bf4bea36581cf967044ef712e67f9c",
        "size": 148525,
        "type": "DieselGameBoxTall",
        "uploadedDate": "2020-05-13T19:25:32.307Z",
        "url": "https://cdn1.epicgames.com/d759128018124dcabb1fbee9bb28e178/item/CodeRedemption_SurvivingMars-340x440-d3bf4bea36581cf967044ef712e67f9c-340x440-d3bf4bea36581cf967044ef712e67f9c.jpg",
        "width": 340
      }
    ],
    "lastModifiedDate": "2021-03-30T14:41:40.094Z",
    "namespace": "d759128018124dcabb1fbee9bb28e178",
    "releaseInfo": [
      {
        "appId": "Ovenbird",
        "dateAdded": "2019-10-01T00:00:00.000Z",
        "id": "581b716168ba4dc4874785f938bd0d81",
        "platform": [
          "Windows",
          "Mac"
        ]
      }
    ],
    "status": "ACTIVE",
    "title": "Surviving Mars",
    "unsearchable": false
  }
}