{
  "app_name": "02107cba432c4551a027d25d597adc49",
  "app_title": "Stranded Deep",
  "app_version": "Stable Build 0.80.01",
  "asset_info": {
    "app_name": "02107cba432c4551a027d25d597adc49",
    "asset_id": "02107cba432c4551a027d25d597adc49",
    "build_version": "Stable Build 0.80.01",
    "catalog_item_id": "459257f3ebf74d8dace3bec4c0ffa704",
    "label_name": "Live-Windows",
    "metadata": {},
    "namespace": "5fd8f5ae809f46d4b33741cc80d3aef8"
  },
  "base_urls": [],
  "metadata": {
    "ageGatings": {},
    "applicationId": "fghi4567GULQ893XdQGSL5NapH9kenNx",
    "categories": [
      {
        "path": "public"
      },
      {
        "path": "games"
      },
      {
        "path": "applications"
      }
    ],
    "creationDate": "2020-12-09T11:25:21.696Z",
    "customAttributes": {
      "CanRunOffline": {
        "type": "STRING",
        "value": "true"
      },
      "CanSkipKoreanIdVerification": {
        "type": "STRING",
        "value": "true"
      },
      "CloudSaveFolder": {
        "type": "STRING",
        "value": "{AppData}/../LocalLow/Beam Team Games/Stranded Deep/"
      },
      "FolderName": {
        "type": "STRING",
        "value": "StrandedDeep"
      },
      "MaxSizeMB": {
        "type": "STRING",
        "value": "9000"
      },
      "MonitorPresence": {
        "type": "STRING",
        "value": "false"
      },
      "PresenceId": {
        "type": "STRING",
        "value": "5fd8f5ae809f46d4b33741cc80d3aef8"
      },
      "RequirementsJson": {
        "type": "STRING",
        "value": "[]"
      },
      "UseAccessControl": {
        "type": "STRING",
        "value": "false"
      }
    },
    "description": "Stranded Deep",
    "developer": "Beam Team Games",
    "developerId": "o-jlpksq54hhq8rcwvlnl6mpctt82x5q",
    "endOfSupport": false,
    "entitlementName": "459257f3ebf74d8dace3bec4c0ffa704",
    "entitlementType": "EXECUTABLE",
    "eulaIds": [
      "egstore"
    ],
    "id": "459257f3ebf74d8dace3bec4c0ffa704",
    "itemType": "DURABLE",
    "keyImages": [
      {
        "height": 1440,
        "md5": "2b9fdcd4c388213e86223f874fa03453",
        "size": 442398,
        "type": "DieselGameBox",
        "uploadedDate": "2020-12-28T00:43:36.777Z",
        "url": "https://cdn1.epicgames.com/5fd8f5ae809f46d4b33741cc80d3aef8/item/EGS_StrandedDeep_BeamTeamGames_S1-2560x1440-2b9fdcd4c388213e86223f874fa03453.jpg",
        "width": 2560
      },
      {
        "height": 1600,
        "md5": "b9fccb9137ce9ba7121e20aaed937417",
        "size": 288893,
        "type": "DieselGameBoxTall",
        "uploadedDate": "2020-12-28T00:43:44.358Z",
        "url": "https://cdn1.epicgames.com/5fd8f5ae809f46d4b33741cc80d3aef8/item/EGS_StrandedDeep_BeamTeamGames_S2-1200x1600-b9fccb9137ce9ba7121e20aaed937417.jpg",
        "width": 1200
      }
    ],
    "lastModifiedDate": "2021-02-22T15:17:13.748Z",
    "namespace": "5fd8f5ae809f46d4b33741cc80d3aef8",
    "releaseInfo": [
      {
        "appId": "02107cba432c4551a027d25d597adc49",
        "dateAdded": "2020-12-09T00:00:00.000Z",
        "id": "a4d4cb97d362473990e604724a87d93f",
        "platform": [
          "Windows"
        ]
      }
    ],
    "requiresSecureAccount": false,
    "status": "ACTIVE",
    "title": "Stranded Deep",
    "unsearchable": true
  }
}