{
  "app_name": "Puffin",
  "app_title": "Axiom Verge",
  "app_version": "1.47",
  "asset_info": {
    "app_name": "Puffin",
    "asset_id": "Puffin",
    "build_version": "1.47",
    "catalog_item_id": "07d9787aea6149fc9768119468a7e087",
    "label_name": "Live-Windows",
    "metadata": {},
    "namespace": "puffin"
  },
  "base_urls": [
    "https://download.epicgames.com/Builds/Org/o-4c6aeklnh4xk4m9h9gmr52tk5v2l8r/Puffin/default",
    "https://download2.epicgames.com/Builds/Org/o-4c6aeklnh4xk4m9h9gmr52tk5v2l8r/Puffin/default",
    "https://download3.epicgames.com/Builds/Org/o-4c6aeklnh4xk4m9h9gmr52tk5v2l8r/Puffin/default",
    "https://download4.epicgames.com/Builds/Org/o-4c6aeklnh4xk4m9h9gmr52tk5v2l8r/Puffin/default",
    "https://epicgames-download1.akamaized.net/Builds/Org/o-4c6aeklnh4xk4m9h9gmr52tk5v2l8r/Puffin/default",
    "https://fastly-download.epicgames.com/Builds/Org/o-4c6aeklnh4xk4m9h9gmr52tk5v2l8r/Puffin/default"
  ],
  "metadata": {
    "ageGatings": {},
    "categories": [
      {
        "path": "games"
      },
      {
        "path": "applications"
      }
    ],
    "creationDate": "2019-01-24T12:45:00.208Z",
    "customAttributes": {
      "CanRunOffline": {
        "type": "STRING",
        "value": "true"
      },
      "CanSkipKoreanIdVerification": {
        "type": "STRING",
        "value": "true"
      },
      "FolderName": {
        "type": "STRING",
        "value": "AxiomVerge"
      },
      "MonitorPresence": {
        "type": "STRING",
        "value": "true"
      },
      "PresenceID": {
        "type": "STRING",
        "value": "puffin"
      },
      "SupportedPlatforms": {
        "type": "STRING",
        "value": "Windows,Win32"
      },
      "com.epicgames.app.developerName": {
        "type": "STRING",
        "value": "Thomas Happ Games LLC"
      }
    },
    "description": "Axiom Verge",
    "developer": "Thomas Happ Games LLC",
    "developerId": "o-4c6aeklnh4xk4m9h9gmr52tk5v2l8r",
    "endOfSupport": false,
    "entitlementName": "07d9787aea6149fc9768119468a7e087",
    "entitlementType": "EXECUTABLE",
    "eulaIds": [
      "egstore"
    ],
    "id": "07d9787aea6149fc9768119468a7e087",
    "itemType": "DURABLE",
    "keyImages": [
      {
        "height": 1450,
        "md5": "a565e7abcb9010daea6d0bbf2d030046",
        "size": 331726,
        "type": "DieselGameBox",
        "uploadedDate": "2019-01-24T13:03:38.010Z",
        "url": "https://cdn1.epicgames.com/puffin/item/PrimaryPromo-2580x1450-a565e7abcb9010daea6d0bbf2d030046.jpg",
        "width": 2580
      },
      {
        "height": 400,
        "md5": "f8988a9efb3ecb9b399c5b0fce2a4e1e",
        "size": 132277,
        "type": "Thumbnail",
        "uploadedDate": "2019-01-24T13:03:46.541Z",
        "url": "https://cdn1.epicgames.com/puffin/item/Icon-400x400-f8988a9efb3ecb9b399c5b0fce2a4e1e.png",
        "width": 400
      },
      {
        "height": 823,
        "md5": "823cc66e9095b2ae217b4dc55e5daf5f",
        "size": 116699,
        "type": "DieselGameBoxLogo",
        "uploadedDate": "2019-01-24T13:03:57.250Z",
        "url": "https://cdn1.epicgames.com/puffin/item/LogoColored-1920x823-823cc66e9095b2ae217b4dc55e5daf5f.png",
        "width": 1920
      },
      {
        "height": 1450,
        "md5": "df7893c5b797dd344118c07be4f82112",
        "size": 184524,
        "type": "DieselGameBoxTall",
        "uploadedDate": "2019-10-22T09:41:44.790Z",
        "url": "https://cdn1.epicgames.com/puffin/item/PrimaryPromo_Portrait-1288x1450-df7893c5b797dd344118c07be4f82112.jpg",
        "width": 1288
      }
    ],
    "lastModifiedDate": "2021-01-14T00:08:25.919Z",
    "namespace": "puffin",
    "releaseInfo": [
      {
        "appId": "Puffin",
        "compatibleApps": [],
        "dateAdded": "2019-01-24T00:00:00.000Z",
        "id": "ba0592cbc4d74926b48fb4cfc7825907",
        "platform": [
          "Windows",
          "Win32"
        ],
        "releaseNote": "",
        "versionTitle": ""
      }
    ],
    "selfRefundable": true,
    "status": "ACTIVE",
    "title": "Axiom Verge",
    "unsearchable": false
  }
}