{
  "app_name": "Weaver",
  "app_title": "Rebel Galaxy",
  "app_version": "1.08f",
  "asset_info": {
    "app_name": "Weaver",
    "asset_id": "Weaver",
    "build_version": "1.08f",
    "catalog_item_id": "5106a8a7bde5423d8c3f1023764cdbe9",
    "label_name": "Live-Windows",
    "metadata": {},
    "namespace": "weaver"
  },
  "base_urls": [],
  "metadata": {
    "categories": [
      {
        "path": "games"
      },
      {
        "path": "applications"
      }
    ],
    "creationDate": "2019-02-14T03:54:16.989Z",
    "customAttributes": {
      "CanRunOffline": {
        "type": "STRING",
        "value": "true"
      },
      "FolderName": {
        "type": "STRING",
        "value": "RebelGalaxy"
      },
      "MonitorPresence": {
        "type": "STRING",
        "value": "true"
      },
      "PresenceID": {
        "type": "STRING",
        "value": "weaver"
      },
      "RequirementsJson": {
        "type": "STRING",
        "value": "{}"
      }
    },
    "description": "Rebel Galaxy",
    "developer": "Double Damage Games, Inc",
    "developerId": "o-7kk95dlwa9mep5kfkubrgmp9qkwbt4",
    "endOfSupport": false,
    "entitlementName": "5106a8a7bde5423d8c3f1023764cdbe9",
    "entitlementType": "EXECUTABLE",
    "eulaIds": [
      "egstore"
    ],
    "id": "5106a8a7bde5423d8c3f1023764cdbe9",
    "itemType": "DURABLE",
    "keyImages": [
      {
        "height": 1450,
        "md5": "45040669e872f9911a6083934e07c822",
        "size": 274767,
        "type": "DieselGameBox",
        "uploadedDate": "2019-06-12T23:40:11.943Z",
        "url": "https://cdn1.epicgames.com/weaver/item/RebelGalaxy_PrimaryPromo-2580x1450-45040669e872f9911a6083934e07c822.jpg",
        "width": 2580
      },
      {
        "height": 484,
        "md5": "e4c0fcc9be3764dfb707ca93a1c4eba6",
        "size": 69577,
        "type": "DieselGameBoxLogo",
        "uploadedDate": "2019-06-12T23:40:23.747Z",
        "url": "https://cdn1.epicgames.com/weaver/item/RebelGalaxy_Logo_Color-1205x484-e4c0fcc9be3764dfb707ca93a1c4eba6.png",
        "width": 1205
      },
      {
        "height": 1420,
        "md5": "4f5b9dbb724d125887fd01654dfdb1a9",
        "size": 143036,
        "type": "DieselGameBoxTall",
        "uploadedDate": "2019-10-22T09:41:44.790Z",
        "url": "https://cdn1.epicgames.com/weaver/item/rebelgalaxy_portrait_promo-1280x1420-4f5b9dbb724d125887fd01654dfdb1a9.jpg",
        "width": 1280
      }
    ],
    "lastModifiedDate": "2019-11-19T17:03:33.982Z",
    "namespace": "weaver",
    "releaseInfo": [
      {
        "appId": "Weaver",
        "compatibleApps": [],
        "dateAdded": "2019-02-14T00:00:00.000Z",
        "id": "63537e2dd0b04a028c319bb7a3bf15b2",
        "platform": [
          "Windows"
        ],
        "releaseNote": "",
        "versionTitle": ""
      }
    ],
    "selfRefundable": true,
    "status": "ACTIVE",
    "title": "Rebel Galaxy",
    "unsearchable": false
  }
}